**********************FLOW CONTROL QUIZ**********************


1) 2
2) No output
3) No output is produced
4) 111
5) Compile Error at line 8
6) 1
7) 17
8) compilation error because of the second loop (while statement)
9) match will be printed one time
	default will be printed 10 times
10) one--two--
11) 1,3,5
12) 2
13) Compilation error at #1
14) Compilation error
15) compilation fails
15) Init Block
	Constructor Runs
	static init 2
	Inside main method
	

***************DATA TYPES QUIZ***********************

1) double
2) float
3) Compilation fails
4) compile time error at LINE 3
   compile time error at LINE 4
5) error ! can't assign an int to a byte
6) 2

